{
    "title": "Professional Curriculum",
    "sections":[
        {
            "name":"Experience",
            "ref":"experience",
            "navbar":true,
            "responsibilities":"Responsibilities"
        },
        {
            "name":"Education",
            "ref":"education",
            "navbar":true,
            "note": "Final Note",
            "courses": "Courses in",
            "in": "in"
        },
        {
            "name":"Skills",
            "ref":"skills",
            "navbar":true,
            "languages": "languages"
        },
        {
            "name":"Contact",
            "ref":"contact",
            "navbar":true,
            "printable": "Printable CV"
        },
        {
            "name":"Thanks to",
            "ref":"thanksTo",
            "navbar":false
        }
    ]
}